<?xml version="1.0" encoding="UTF-8" standalone="no"?>
<svg
   xmlns:dc="http://purl.org/dc/elements/1.1/"
   xmlns:cc="http://creativecommons.org/ns#"
   xmlns:rdf="http://www.w3.org/1999/02/22-rdf-syntax-ns#"
   xmlns:svg="http://www.w3.org/2000/svg"
   xmlns="http://www.w3.org/2000/svg"
   xmlns:xlink="http://www.w3.org/1999/xlink"
   viewBox="0 0 323 79"
   height="79"
   width="323"
   version="1.1"
   id="svg3437">
  <metadata
     id="metadata3443">
    <rdf:RDF>
      <cc:Work
         rdf:about="">
        <dc:format>image/svg+xml</dc:format>
        <dc:type
           rdf:resource="http://purl.org/dc/dcmitype/StillImage" />
        <dc:title></dc:title>
      </cc:Work>
    </rdf:RDF>
  </metadata>
  <defs
     id="defs3441" />
  <image
     y="0"
     x="0"
     id="image3445"
     xlink:href="data:image/png;base64,iVBORw0KGgoAAAANSUhEUgAAAUMAAABPCAIAAAD+5DCfAAAACXBIWXMAAA3XAAAN1wFCKJt4AAAA IGNIUk0AAHolAACAgwAA+f8AAIDpAAB1MAAA6mAAADqYAAAXb5JfxUYAACOzSURBVHja7F1pVFPX 2g4zISEJcyAyyBBmBEFAWqVOUEeqYh2wFYfeirZqvdp1tbe2dq12tdf2XjssK9haS7VWaFWEioBF y1AVmecgcwIkISFkDoEk34/9eZoGcnIgCYM9z4+sJGeffab9nP3udzRRqVQYFDMNlUrF5/P5fL5A IBAIBEKhUPAU4E8+n69QKKRS6cjICAaDEYvFcrkcg8GIRKKxsTEMBiMQCJRKJQaDGR4eBn1isVgr Kyvw3cbGxtLS0sTExEENzs7OTk5Ovr6+VCqVRCKhT2FOwwRlsrEpymKx2Gw2m83mcrkcDofD4bDZ bA6Hw+VyAWn5fL5IJJrZ83RycgoICPDz86NSqf7+/n5+fu7u7iYmJugTRJn894JcLu/t7e3o6Ojs 7KTT6Uwmk8Fg9PX1sVgsMHnOOWCxWIjYVCrVz8/Pz88PmuRRoEx+RtDb21tVVVVdXd3Y2NjR0cFg MICU+wzDzMzMw8MjMDAwIiJi4cKF4eHhTk5O6EhAmTwn2fvbb78VFxeXlZVxuVyDz4F2asDj8dbW 1iQSycrKCovFEggEU1NT0NLCwgKHwymVSoFAAO0+NjYmEonEYrFMJhMKhSKRSCaT8Xg8Ho83NDTE 4/FkMpnBb8i8efPi4+M3bNiwbNkya2trdISgTJ69EIvFJSUlgMDt7e36L0e9vLw8PT0pFIqbm5uL i4ubm5urq6uzszMWizXqhUgkkqGhoYGBARaLBcT+vr6+gYGB7u5u/QUKAoGwcePG7du3L168GF1d o0yeRejs7Lx161ZRUdGjR4+mttDF4XBUKjUgICAgIIBKpc6fP9/Ly8vGxmZq5zM8PDw4OAgUZiwW a3R0NC0tzVAXOzY2xmAwurq6uru7Ozo6mpqaaDQag8GYQldkMnnVqlWrVq1atmwZkUhEBxLK5JlB fX19Xl5ebm5uU1PTZPelUCgLniIkJGSyul+BQNDX10en0/v7+/v7++l0OovFYrFYQOOt8Tbx9PRs aGgw6q0QCoWtra1NTU01NTVVVVUtLS2jo6PIdzc3N4+JiUlISFi/fr2vry86tFAmTwceP3588+bN 3Nzc7u5u5HvZ2NhERUXFxsZGR0cvXLjQ0dERucROo9Gam5tbW1ubm5sZDAadTheLxcgPTaVSKysr J9zEYrG+/PLL1tZWLperUCjweLyNjQ0ejycSiTgcDofDkUgkJycnCoXi7OxMoVAQigkymayxsbGq qqqsrKy8vJzD4SA/28DAwHXr1q1fvz48PBwdbCiTDQ8Gg/HTTz9dvXr1yZMnCHchEonPP//80qVL Y2NjQ0NDzc3NkezFZrMrKioqKyubm5tbWlp6e3v1vO2hoaHl5eUTbrp3796mTZsUCgXCrvB4PFix e3h4UKlUYHby8vKCuTSVStXS0lJaWlpcXHz//n2pVIrwWO7u7jt37kxNTXV1dUW5hzLZALqfW7du Xb169ffffwd+UfCwtraOi4uLj4+Pj49fsGCBmZkZkqMolcrff/89Pz//7t27+qvKNBAZGXnv3j1t WxsbG/Pz85lMJpfL5XK5Q0NDDAaDx+Mh79/S0tLHx4dKpQYFBS1atCg6OppAIGi7mXfv3r1169av v/6KUKywsLBYt27d3r17lyxZgqrHUCZPBS0tLRkZGdeuXUPiUzVv3ryEhITExMQXXnhhsorlgoKC t99+u6ura1J7WVpa2tra2trakkgkIpFo+xREIlEoFJ4/fx5qGRcXd+fOnUl1zuFw2tra2tra2tvb Gxsb6+rqkBvSTE1NAwICoqOjY2JioqOj/fz8JqT0r7/+mpWVVVxcjHBF7e/v/9prr23fvt3W1hal Ispk3VAoFPn5+enp6SUlJTqvNywsbP369WvXrg0JCdFHbq+pqeHxeMDAq76JQCBYWlri8XgcDmdh YWFnZwfoSiAQYEyydXV1S5YsgX4uW7YsJydHz9tCp9Nramrq6upqamoqKyshh20kQvKaNWvWrl37 3HPPWVhYaGwdHBy8du1aZmZma2srwgVLWlpaWlqanZ0dSkiUyRODx+NlZmZeuHCht7cX7i6YmCxc uDApKSkpKWn+/PnamnV0dBQWFlZVVXV3d5uZmeXl5Y0fx0aCBpMTExOzs7MN2L9KpWptbX34FAil CSKRmJCQsHbt2tWrV48XWyoqKjIzM69fv45EAsLj8fv27XvjjTecnZ1RWqJM/staMT09PSsrC14f 4+/v//LLL2/dutXDw0Nbm5qaGrAOVJ9ktmzZ8u23307b5WgwecOGDZcvXzbe4VgsVnl5eUlJye+/ /97R0YGE0tu2bduzZ09gYKDGJrFYfP369czMzEePHunsB4vF7tq16/DhwxQKBSXn35rJY2Njv/76 a3p6ellZGUwzMpm8efPmrVu3wthFZDLZL7/8kp6eXltbq7GJRCI9fvzYxcVlppicnJx88eLF6Tk0 g8H4/SkGBgbgGy9evHjPnj1JSUnjVwo0Gi0zM/Onn34aHByE78TKyiolJeXYsWPz5s1DKfq3Y3Jv b+8PP/xw+fLlvr4+bW3Mzc1XrVq1a9euhIQEGCsLn8//8ssvv/32W206oXPnzu3cuXM6r06DySkp KV9//fU032GVSlVfX19YWFhQUFBVVQVj6HJxcTl+/HhqaqqlpaXGJrlcfuvWrQsXLjx48AD+cNbW 1vv27Tt27Ji9vT1K1GefyTKZ7Pbt299//z28Scnb2/uVV17ZsWOHTkvmpUuX3nvvPRibzebNm7/7 7rtpvkwNJu/Zs+fs2bMzeNu5XO7du3dv3759584dbesXd3f3kydPbtu2bUK7XUNDw4ULF65duwa/ /CEQCIcOHXrjjTem7OiKMnlWQ6FQlJSUZGVl5ebmqocEacDU1HTVqlX79+9fvny5TtOlUCh8/fXX 8/LyYNp4e3uXlpZOv9VEg8n79+//z3/+MxsehEQiyc/Pv3HjRlFR0YScpFKpp0+fXrt2rTbx5/Ll yxcuXOjs7IQ5Cswkj2JOMlkul5eVlQHXaBaLBdOSRCK98sor+/btg9FFq6Ojo2Pbtm00Gs3e3t7d 3Z3FYjGZzPHrt7t37y5YsGD6L1yDyW+99dbp06dn1aMRiUTXr1/PyMior68fvzU5OfnMmTMODg4T 7qtUKouLizMyMgoLC2EEKy8vr3fffXfz5s1QgCeKvyx+Zj/YbHZ2dvbu3bspFIqtLgQFBaWnp0sk EuT9s1isM2fO5OTk9PX1gX/kcnlAQIBGz+np6TN1B2pra9XP5OOPP561D+vhw4e7d+9W92wB8Pb2 vnHjBvy+XV1db7/9NplMhnm+wCtGheKvmL1M5vF4BQUFJ0+ejIuLIxAItggQHR199epVuVyu/9G5 XK6zs7N65zt37pzBu6HB5K+++mqWD6yamprExMTxz2jXrl18Pl/no//000/9/PxgnvWKFSvu3buH EhjCLJKuRSJRc3NzU1NTZWVlRUVFW1sb8nNbtGjR0aNH16xZYyg/3kOHDl26dEldristLZ3BgFsN 6fqLL75ITU2d/RLf9evXT506peGW4+/vn5WVpXPVMzIy8v3333/22Wcwpq+oqKg333xzw4YNCJ3h 0XWygcFms3vV0NPT09bWNrUIoRUrVhw9elR9lOuPy5cvHzhwAPqJw+GKior0cd40OJMvXryYnJw8 J0aYVCo9ceKEhvXb3t7+8uXLzz//PJLdL168eObMmaGhIW1tPD09U1NTt2/f7ubmhjLZWOju7q6t re3s7ASkpdPpvb29yOPgtMHMzCwpKemtt94yuP7pzp07KSkpUAyAqanplStXtKleZ4rJWVlZL774 4hwaZ3l5eW+88YY6Gy0tLT/77LNdu3Yh2Z3P53/22Wfnz5+HyUZmZma2cuXK5OTk1atXa4vcQpk8 CXR1dT1+/Li2tra+vr6uro7P5xu2f2tr6x07dhw6dMjb29vgt+PHH388fPgwyA4P8P777x89enTG n5MGk+/duxcZGTm3hlp/f/+rr75aUVGh/ue///3vt99+G2EPDAbj9OnT2dnZ8LGolpaW8fHxa9as Wb58OULLBcrkP1FRUZGVlVVUVDTZUD7kIJFI+/bt279/vzGc7DkczocffqjhSr1t27aMjIzZ8Jw0 mNzc3DwXPRklEsn27ds1IquPHz/+7rvvTupWvPvuu/fv30fS2MvLa9myZSCvi4+PD8pkHeLo+++/ 39zcbKRTNDc3j4+P37JlS1JSEg6HM2znXC63trY2Pz//6tWrQqFQfVN0dHReXt4sSf6qweTBwcE5 mkR+ZGRk165dt2/fVv9zCubxoqKi06dPT2i71gZHR8eIiIjg4ODAwMDAwEB/f39j5zOdS0y+cuXK gQMHDC6iW1hYBAQEhIaGLlq0aMOGDYbKkJ6Xl5eTk0Oj0YaHh0UiEZ/P1xYTP2/evPv37yOZ/Hk8 XmNjI4PBYDAYTCaTz+erZ5zWeDsgjwHWgEKhgLqys7Pr6emZu2NOIpHExcVpOHV98MEHR44cmVQ/ KpXqzp07n3zySXV19RROw9TU1NPTMygoKCAgIDg4ODg42M/PD2E6p2eQyREREUii3sDU6uLiMm/e PAqF4urqamlpCbKxE4lEExMTkKIdh8MBjwJ3d3eD++VJpdLIyEgkyV+dnJxu377t7++PpM/169dX VlYiySJkKMTExBQVFc3RASeVSnt7e0+fPq3hFWtiYpKRkbF169Yp9FlUVPTJJ59orMCnACsrKzB/ hIaGBgcHh4WFzaHCd3oxmclkUqlUGMXDc889t3Tp0vDw8ICAADKZPONGv5GRkcLCwvLycmD0otPp 47XodnZ2eXl5oaGhyLsVCoU1NTVgWmaz2WKxWCKR8Pn8kZERsVgM6iqCn/or7TEYTGpq6hdffGGQ GyKXy0UiESgKCYpaqEc4qUsQ6kLB+J8AYrEYyDigN6FQqFAogGwC6mDweDyYO2BjY1NSUgIzouBR Vlb23Xff5ebmGrDaho+PT9RThIaGzmavb72YXFlZuXz58gk3rVy58ty5c2QyeZa/yQQCQX9//8DA AJPJ7O/v53A4qampSGbjKUMkEsnl8uHhYajOC/gCfefxeIODg1wuV1uqjc8//3z37t16ngaDwfj5 559ra2uZTCabzR4YGJhUml4jYfny5Tdv3tTz9hYVFf3xxx9tbW0gG+HQ0JBEItH/3KysrMLCwiIj IwGxjWE6mTEm5+bmpqSkTLhp586d586dw6DQT4LgPgUo7CSTyeRyeUpKCh6PN4bcy+Vyh4eH1Ys2 Q1Wd+Xz+8PAw9F0gEKjb6gw2HE1Menp6DC7TghJZQ0NDfX193d3d3d3dPT09PT09XV1d4yULhHBw cIiOjl68eHFMTExERMSMa0b1YvIPP/xw8OBBbVvT0tI++ugj1I3uWQUQsEUikVQqFYvFQNUnkUiG h4fBF4FAAFWcEwqFMpkMSPJQM40ObW1tk5OTz549O52pc4eGhp48edLa2trW1gY+p+BraGVlFRER ERMTExsbGxMTg7yGwWxhck5OziuvvALT4Pnnn//mm29mjw+dXC4HY04ikchkMj6fL5VKNeYWjRqI AKASIvID4fF4bVpQc3NzmBkVJNxU/wmtzaByjaamppAPk6Wl5dwNwZdKpVKpFNxtc3NzCoUyG9Jf S6XStrY2Go0G0burq2tSlXT8/PxiYmKee+65JUuWwOSHm0VM5nA4YWFh8EOcQCCcPn16z549M/uQ KisrX331VRC0+KxOklgsFjIya6M9ZJCHGgNR1sbGxtLSEnovgD/BawX6E2SxBS1B5Veo5bON0dHR zs5OQOyWlpa2trYnT54gVF56enouWbJk6dKlS5YsMWqaQX2tUFVVVceOHauqqoJvFhsbe/bs2aCg oBl8Hnw+v6ysrL6+vre3F5RiYrPZk5ppUWjDhC8CEokE3h04HM7Kygok9La2tlbP+A1+kkgkEKs4 V1KCKJVKOp2uPm/TaDSdjsne3t6A0suXL9eWdGHGmAzQ0tJSXFxcUlLyxx9/aLseCwuLU6dOHT58 eLa9bnlqkEqlwF0EWJKAkln9J5/PHxsbA/oeqVQqEon0rDyMQh3W1tZQHn9AbxKJ5Ojo6OjoaG9v b29v7+DgAD5nYZp7JpNJo9FoNBoo8dHS0qLNHmZmZhYTE7N69eq1a9caqpClgSMoFAoFjUZraWlp aWkBhQi7urogE6WlpeXNmzeRxLLNIahUKvDyAoTHYDCQ3VgqlYJnCa3GIYsr9AoAplfMU+Mt1Btk sAXmaGj1DrqCmv1tYWZmBrEafDo6OoLv4Cf4Zwbr1IyNjT158qShoaGhoaG+vr6mpmZCD7/w8PCU lJQtW7bomULU6FGNIyMjwKZnampKoVD+huFmxlbPgHcEGCXAUgV+ghxGwJQK3hfQuwb4bIDXCpAy hELhyMiIRCIBoodAIACix1y/PxYWFoDVFArFxcUFfLq5ubm6upLJZGdn52lLCaZUKmk0Gijx8ejR Iw1nVUtLy6SkpKNHjwYHB89SJqOY0wDvAoFAIBKJJBKJUCjk8/nAcQ04rovFYrBVJBIBW7RIJBIK hQbxZjM2zM3NQRFpiOQUCoVMJru6urq5uRl11mEymaASdVlZGY1G+382mpisW7fuv//97xSKIqBM RmEs2RLQXiAQALMzsCoPDw+DL+DVAPm0QnZmaLkx47Czs5s/f763t/f8pwgICDC4pgqDwXA4nPr6 +vr6+ubm5pGRkd27d7/wwgtcLtfa2hp58B/KZBSzDkDRIBAIgMEZ8jmB2A7+AZuAMgL4wEH/GMP/ DMDNzS0kJCQ0NDQ8PHzp0qXGU7ytWbOmrKwsICBg//79O3fu1KnVR5mM4hkE0AgC/x/gaiaVSiFH VMjtVN3/FLwCJnUUMzOzyMjI5OTk1157zeC+jGKxeO/evSCQOzQ09MKFC/BGXJTJKFD8KQsAegMd LQjAAH7v0E9IQQARh0QiFRcXG8qYpA6FQvHqq6/m5uZiMBgsFpuZmZmYmIgyGQUKQwKS4SF3OmNA PUjJwsIiIyNj8+bNKJNRoJjVEAgEQ0NDfD6fw+Fwudzm5uZLly6pJyS1srK6cePGhB4ZKJNRGAUK hQINg5sU3nvvvc8//1yn3t7Ozq68vHx8PsYJmAxqqXA4HA6Hw2azIWWgutfR6Ogo5GYAAJwNNLoC goeLi4u7u7u/v398fPwczSOHYrxsWVNT09jY2NTU1NfXx+Vy2Ww2UB2pNzMzM7O1tTUzM3NycgLO GF5eXlFRUdHR0TNY0GN2AtTQ+fHHH7VV7YYQHx+fk5OjIdL/hck///xzenp6dXX1pGK4kMPb2/vu 3bszEr2JwoC4cOHCe++9p0/wiamp6fHjx9955x30ZmpgbGysurq6tLQUWJi7uromnKXPnj27Z8+e iZlcW1sbHx9vbGH7f//73969e9EHNqfXcv7+/vqnCnr55Ze/+eYb9H7CQyKRNDU1NTY21tfXl5aW trW1gf/JZHJtba16aPqf0fB//PEHchrb2Ng4OTlZWVnJ5fKhoSHkDrrwRY9RzH7cvn1bfxoHBQW9 //776M1EQrRFixYtWrQI/Ny7d292djYGg2Eymd9+++2bb745AZPb29t19uvq6nry5MkVK1ZoLLgH BwdLS0vPnDnT1NQE3wMqWmsDCDWBEvSBT7D+HBgYGBgYYLPZKpXKxcUlIyMjIiJips6zpKRkCnuB OGQymRwaGpqYmLhu3bq5m1l6BrFx40bAZAwGk5mZOXUmEwgEHx+f8dl8nJycfH19kbD0GQtphACi DkEoEp/PB9lnxWIxcDaA3A+BjzFIrwm8ESUSyaTyPw4PD2dnZ88gk0tLS5E027FjR2pqqpOTE4FA IBAIqKbTIFi+fLmpqSlYOdNotJqaGmgkTI7JNBptzZo1WCzWz8/PwcGBQCCAVMnt7e1IwmXDwsKQ pA0ZGxtjs9l9fX0sFmt0dBS41GvE9KsnnYES2QA1KdhqYmICJb4BqWqghDXIweVyGQxGX1/f4OAg cP2BchIAZyCgwJ/mfAP37t0TiUQI02vyeLzKykomkwmMEUBNNWFaMijjh6WlJQj0dXZ2DgkJUfde YrFYSMpfxMfHnz9/Xp9rVKlU7e3tT5484XK5QjVAI0Sbvk09TRp44iQSCY/H29raOjk5UalUd3d3 nUffsmWLXC6HxhV0Z6DOTUxMIN075BkCJW8DGVSAJAIK1kA7AmW++lidFEZHRy0sLCCv8ps3b2oy WSqV9vf3I+xOKpVOqh4PhA0bNsA3KCws/OCDDxobG40RDRMfHw8c32Agk8kuXbpUXl7e2tpqkOqw xkBTU1NISEhcXByVSiUSiWDA2djYODs7R0VFqcfWX758+ciRI3K5XJ/Dvfjii1lZWeB7bW0tkl3+ 8Y9/6HPE5ubmrVu3GqliDg6Hi4uL++KLL2CyapWUlBj70VdVVfn5+SFvL5VK8/PzP/roI/XgkNzc XKie1v8zubOzcxpCyaKiomC2isXi/fv3czgcIx19cHBQZ5t//vOfP/zww+yXsoaGhjSqsUDL0aKi IqimdGVlpZ40xmAwDx48gNw8ampqdLY3NzdfsWKFPkdsa2szXuErsVhcVFSUk5OjXux+dkIoFD5+ /PjRo0cPHz588ODB+FxC7e3tjx49iomJ+ZPJCGs76YmwsDCYrTk5OcajMQaD0dk5nU6/cuXKnF5H yWQyOp0OMfnDDz/09/cvLy8fGBgYGhricDhIFkFYLBZI105OTqGhoTt37oTkwLq6Op27BwUF6Zm4 96WXXrpx48atW7daWlp6enqYTKbBjaPqLpDjMd7HafrB4XCuXLlSWlr64MEDmPT6GRkZf2EykkUy WDC8+eabCQkJWCxWIpEwGIympqbbt29DSQ9gAFKrwTT4+eef4XvYtGlTcnKys7OzWCxWKpUcDofB YLS1tT18+BBJ0WYul6tUKmGc3QsKCiYlmOBwODc3N0dHRycnJxcXFzweDxZIoFodWCCpZ65V11rx +Xw6nd7T0/PgwQM6nW6ox+/o6Lh48WL1M0xLS0tLSxvfcvzaHkkkQEtLi85ziI6O1v9CVqxYAU3s QKsPpSUBWQoETzE4OEin0+l0el9fn0G0FTweD6Eg89JLL73++utkMhmHw5mYmEil0r6+vosXL0Lq ZT0f5eHDhw8fPqxQKBoaGsrLy3/77bfS0lKN0Otffvnl0KFDCxYsmByTP/roo/FLoH/9619IaiDC p/CWSqVlZWUwDchk8nfffactaXZ1dfWBAwfgazgrFAo+nw8TGo5kmOLx+F27dq1cudLf399Qtcjv 3Llz8OBBJMI/DJycnBITE9955x2ESS2mUI9mZGQEidALGT8NBSsrK1dXV53NJBJJRUXFtWvXkAhW MLpPhAqjhQsXXrp0SePd5+XlFRsbe//+fZ1PE7m6y8zMLDw8PDw8/ODBg2Kx+M6dO1999RWUl1qp VG7atOn8+fOTkK7d3NwmLCyGxWJjY2N1zqienp7wizH4EntKpVKpVE54/WNjY319fUicB+G9UJFI niQSyc/PLygoCMnYQq5SunLlSkJCAvJdKBRKfHx8QEAAhUJxd3f38PAgk8nGTi7X0dGBROyE14YY D0qlcmxsDOF0CiMeImTy66+/PuENNzMz8/T01MnkqdWRwuFwmzdv3rx5c0FBwYEDB8BRBgcHT506 NQkmr169Wr3QiTqQrIvgRWv4CRmDwbDZ7I0bNyYkJJDJZJVKBaK9GQwGjUarrKxE6HWk7fwBkFTJ YDAYR44cOXLkiL29va+vr6+vL4VCAQmZnZ2dHR0dSSQSiUSarLkrNjY2ICCgtbUVySL27NmzW7du nbakkOqKKJ1tbG1tfXx8jKH7UfeZ4fF4w2oYGBjo6uqalFADMxp7e3t17m5iYgLz5kXiWDHZEaKB xMTEkpKSlStX9vX1Af6aYzAYgUDAZrN17gwW1toEG527w2c80lnFAoPB3L9///79+1O+eFtbW/hz mFSN2KGhoYqKCm3Vty0sLIhEIpFIJJFIRCLRzs6OSCQeP34cxvJBpVKRMPmbb75Zv379jEx6SF73 4eHhBnnFKJXK0tLSGzdu1NTUwKSA12cxom0TEgurj48PzCpGZ+bq4OBg/UPBKBTKV199tXHjRgwG QyQSzTGIFdeBgYHaNiGRbGFYpFKpEBoq9YFOTUx4eLihjjU6Ogo8MTQ0djBMRqJsCw8PnykaI5ys DHIPGQzGnj17Hj58aLxrgZk2q6ur9dQFrF+/Pjs7W2MpZ21t7ejoSCaTo6Ki1L0s9dQLrl69Oj8/ 39fXFymTzczMYOqDI1lhwlQD6Onp4fF4xh6IGlFgE94X4LVmpBOYsAQBBCQLhEmtpQ0OJOouyAA2 ZchkspdffrmxsdGo16JtTh4ZGdFfP7927VpQpVmhUBCJRAsLC+BnZowLOXfuXFpa2muvvWaOwWCe PHmCRJyAWaMjURLALAyQWCmnDFNT0wULFuzbt0/nbEYikT755JNDhw4ZKTwbnslI3mX688TYczLM 6x4hrl27Zmwa29jYaBuNTU1NSHRmOvXztra2oaGh0/BQHBwcgAce0jkZxrNMpVIxmcwZZ7KpqSlY lDo7O7u7u1MoFA8Pj5CQkLCwMOTahZSUlBUrVlRXV/f09PT394MkGAqFQiAQjI6OikQi9erKcrl8 YGAAudMCvOSCxCQ+g5WoQXVCnY+ASqXqeaCffvoJSTOQhwQ4NkulUqVSyWKxEKa5hlkkP3r0CMmL YGarjk4IpEyGUUhyOBwkdxCGTggXyXZ2dlFRUd7e3r6+vi4uLkQikUAg4HA4PB5PJBINVcuLTCav WbMGuSjY09Nz/fr1jz/+WCelYeZkLpeLZIVijAIICMFms3U+ZQcHB+APo49oXVlZCd8Gi8V+/fXX q1at0njio6OjlZWVqampAwMD8D04Oztr21RYWKjzJBcuXDgLQzKRMtnb21vbJoQuStrWCeAB6Nz9 xIkTx44dgzcjTT+sra39/f1PnDhRVFSk8ypgfO6QTMgYDGYGywvDuzcC6B+6WFdXp/N9kZiYuGnT pvH/W1hYLF68OCIiYspMlkgkOq2hmJkzmOtgMofDgV+/6WQyEgMSzJx89+5dnSfg4eFx4sQJzCwG kqoiMG4V3d3dSI4yg1G+SEQGiUSiUqmQmOX1kc5gZlS5XI6kB223MS8vD4l0OTuZbIrQBAWTYv/B gwdTnpNbW1tPnjypc1+xWIxwrM8IGhoatBmWETIZoVyjZ2SCsZk8NDT0448/6nMUJLFW2u4Vg8HY sWMHEuXrhO4PMpnszJkzSE5yls7JSJhsbm7OZrPVraMjIyODg4MdHR337t0rLi5GcqRt27apry6G h4fFYjFCvxwulxseHr5gwQLgU2VnZweyCIC4bSiM29zc3BiVr+VyOcj+AVJ8gHwgY2Njw8PDdDqd RqM1NDQg6Uc9O8L4UahzdwsLCz1XofoAYXDCwYMHb968GRsbGxgYiMViJ1sA7fHjxzrbFBYWHj9+ PCIiAovFgqpOHR0dDQ0NVVVVCLWPJSUlp06dCgsLs7e3t7Ozk0qldDr9/PnzSAKBKBTKDOod4UiK JHZibGzshRde0PNIepoWlEplTU0Nknf2rAXMCEAyJ8+fP38GTx5hRV+lUllQUFBQUGC8M1EoFOnp 6fr0IJFIzp49O7V9DR4fYjDpGqGuBYX+iIuL04fJ8NHdxoa7u7s+C+BnBgaJ2TQKk6dQPR3FFBAV FRUSEqJtq051KwaDmVBhO20gk8l6ZgKZ66BQKAcOHNDpKThTMFEqlXV1dVVVVS0tLSwWa+gpQBFq 41WU/pvAxcXFzc0tMjLyrbfegskF5+LiAp84KjIysqioaGbNmEKh8NNPP83Ly2tvb3+Gy4mZmJjY 29s7ODg4ODh4eHj4+Pj4+voGBAQEBwfPZqlEd4U3oOlRrwKlXjwWFJKHGoMK1PBdwQwUbdpdmFyK SAAKWSFpOWGKD8xfMzaqP3LgVYvD4aytra2trfF4PIiCAro3KMcikvc9jLU5MDAwOzsbPlXDdEIm k3V2djKZTPDSF4vF4NlBlcOAXhAzkTOM/g72QNOpjYTjY4ygZwqSokAZV/F4PHhkeDzeysqKQCDY 2NjY2dk5ODhMf8TodDAZxTQgJycnKysLVEuD5CACgbBw4cKkpKQdO3bMoNYaBcpkFFMBkFxAgm70 bqBAiP8bAIWCw2QhrJWiAAAAAElFTkSuQmCC "
     preserveAspectRatio="none"
     height="79"
     width="323" />
  <path
     id="path3447"
     d="m -86.07685,-53.560188 c -0.36311,-0.363103 -0.37277,-4.399401 -0.0215,-8.969551 l 0.6387,-8.309363 -2.89518,-1.137672 c -2.82771,-1.111155 -25.00399,-0.647757 -26.19921,0.547462 -1.22759,1.227594 1.23129,1.804771 9.76042,2.29108 l 9.0436,0.515643 0.15552,3.611295 c 0.22561,5.238642 -0.17005,8.48756 -1.15623,9.494122 -1.17608,1.200418 -115.65009,0.874413 -117.91139,-0.335795 -1.66359,-0.890328 -1.67044,-1.534438 -0.13033,-12.25161 0.89406,-6.221533 1.94003,-11.820688 2.32437,-12.442568 0.87451,-1.414981 22.9162,-2.833077 28.74045,-1.849075 l 4.21978,0.712926 -0.65925,4.641647 c -0.36258,2.552906 -0.93486,7.483334 -1.27173,10.956507 l -0.61249,6.314859 4.40066,-0.314859 4.40066,-0.31486 1.60053,-6.603641 c 0.88029,-3.632002 1.91935,-7.119502 2.30901,-7.75 0.48314,-0.781729 5.61991,-1.146359 16.14948,-1.146359 l 15.44098,0 0,4.377555 c 0,2.509422 -0.59098,4.868029 -1.38484,5.526872 -0.76166,0.632124 -4.47417,1.386202 -8.25,1.675729 -10.63434,0.815429 -13.36516,1.397452 -13.36516,2.848526 0,0.73593 1.0125,1.609395 2.25,1.941032 2.93193,0.785728 45.56807,0.785728 48.5,0 1.25141,-0.335365 2.25,-1.383193 2.25,-2.360944 0,-1.504772 -1.22738,-1.822388 -8.52188,-2.205251 -4.68704,-0.246007 -9.05204,-0.977438 -9.7,-1.625402 -1.62621,-1.626211 -1.48321,-8.124315 0.20171,-9.165651 1.37395,-0.849151 4.35765,-1.089 36.3344,-2.920795 15.99467,-0.916258 16.90859,-0.868853 18.75,0.972561 1.19206,1.192054 3.30863,1.935768 5.50909,1.935768 2.8442,0 3.50559,0.351736 3.24135,1.723801 -0.22654,1.176352 -1.75834,1.966557 -4.82332,2.488189 -5.54168,0.943145 -6.99135,2.804988 -6.99135,8.97914 0,6.126238 -2.38554,8.80887 -7.83333,8.80887 -2.10834,0 -4.13042,-0.297085 -4.49352,-0.660188 z m -108.74052,-6.758636 c 0.67832,-0.817325 1.04819,-3.678935 0.87245,-6.75 -0.2982,-5.210899 -0.37842,-5.338247 -3.55572,-5.644582 -3.68664,-0.355442 -4.55897,1.026733 -5.77784,9.15478 l -0.69861,4.658626 3.9911,0 c 2.22621,0 4.51181,-0.627414 5.16862,-1.418824 z m 44.94649,-10.126967 c 0.87669,-0.876684 -0.75068,-1.627295 -4.66689,-2.152568 -4.0057,-0.537278 -5.97632,0.653021 -4.64565,2.806084 0.63568,1.028561 8.15838,0.50065 9.31254,-0.653516 z M -191.75,-77.9 c 0,-0.55 -2.025,-1 -4.5,-1 -2.475,0 -4.5,0.45 -4.5,1 0,0.55 2.025,1 4.5,1 2.475,0 4.5,-0.45 4.5,-1 z m 168.5,23.315354 c -8.4011,-0.731819 -8.50381,-0.811726 -8.46324,-6.584406 0.0472,-6.71607 2.31848,-18.486053 3.86607,-20.034234 1.6331,-1.63372 16.83822,-2.153473 20.59717,-0.704068 2.88338,1.111794 2.92454,1.212171 1.05887,2.582058 -1.06762,0.783913 -3.60002,1.425296 -5.62755,1.425296 -4.36134,0 -5.26712,0.959947 -6.78699,7.19282 -1.60405,6.57811 -1.45184,10.4752 0.43746,11.200191 0.86998,0.333844 5.57764,0.606989 10.46145,0.606989 l 8.87967,0 1.07251,-3.982994 c 0.58988,-2.190646 1.84473,-4.37879 2.78854,-4.862543 0.94382,-0.483752 5.2792,-1.167061 9.63416,-1.518464 12.44967,-1.004566 12.02995,-2.461318 -0.99767,-3.462695 -5.20482,-0.400072 -8.9152,-1.143916 -9.1432,-1.832996 -0.54944,-1.660576 12.81584,-2.735707 23.22721,-1.868444 l 8.49554,0.707674 0,8.47359 0,8.473589 3.24305,-0.313359 c 4.01292,-0.387747 5.509,-3.147689 6.41739,-11.838703 l 0.65166,-6.234721 6.59395,0.622924 c 3.62667,0.342608 10.98145,0.626123 16.34395,0.630033 l 9.75,0.0071 0,3.980948 c 0,4.444502 -1.69173,5.459398 -8.07233,4.842731 -2.62379,-0.253583 -3.47443,-0.865082 -3.92792,-2.823679 -0.41845,-1.807291 -1.34662,-2.589292 -3.34977,-2.822258 -4.02262,-0.467829 -5.29208,1.113736 -6.7397,8.396722 -0.71027,3.573317 -1.89492,6.997821 -2.63256,7.61001 -0.73764,0.612189 -7.06439,1.474974 -14.05944,1.9173 -12.30302,0.777972 -55.57416,0.923014 -63.71828,0.21358 z m 43.9349,-5.290603 C 25.05649,-61.537324 23.92063,-63.9 18.75,-63.9 c -4.13333,0 -4.5,0.203704 -4.5,2.5 0,2.767293 1.95091,3.229561 6.4349,1.524751 z m 82.1705,-8.50424 c -0.98387,-1.501567 -3.44095,-2.995213 -6.2973,-3.828083 l -4.68392,-1.365767 3.18791,-1.111311 c 5.67146,-1.977082 3.69389,-5.229221 -4.02701,-6.622457 C 86.45269,-82.133998 85.08318,-83.9 89.02432,-83.9 c 3.82696,0 4.59007,-0.939872 2.57287,-3.168848 -2.70124,-2.984845 0.85827,-2.370591 4.62383,0.797919 2.77293,2.333262 10.02898,15.512633 10.02898,18.215911 0,2.203311 -1.85448,2.026052 -3.3946,-0.324471 z m -159.57737,-5.482029 c -2.6042,-1.646917 1.7516,-2.541314 12.1768,-2.500323 9.71524,0.0382 12.52328,0.757275 9.76621,2.500901 -1.91408,1.210499 -20.02875,1.210022 -21.94301,-5.78e-4 z M 50.25,-86.489581 c -3.8322,-0.913541 -99.41216,-5.02308 -148.6424,-6.391002 -19.87833,-0.552343 -37.20333,-1.429147 -38.5,-1.948453 -3.19,-1.27756 74.1962,-1.330345 110.6424,-0.07547 44.99,1.549048 86.36062,5.351929 88.05547,8.094258 0.5305,0.858367 -8.27486,1.102716 -11.55547,0.320666 z m 31,-3.965552 c -7.515,-1.892471 -38.51265,-7.155414 -49.34727,-8.378437 -7.73395,-0.873017 -10.01829,-1.62997 -18.15315,-6.01536 -11.22163,-6.04941 -32.10984,-14.5217 -42.10618,-17.07833 -15.72283,-4.02123 -38.35907,-5.64862 -56.31264,-4.0485 -23.64744,2.10759 -43.02805,7.35514 -65.21974,17.6591 -11.60561,5.38868 -12.99878,5.79016 -22.79697,6.56967 -15.61153,1.242 -17.15133,2.265427 -10.30167,6.84699 l 3.73762,2.5 -3,0.265081 c -1.65,0.145795 -5.25,-0.304205 -8,-1 -4.77275,-1.207583 -5.01394,-1.432779 -5.30677,-4.954829 -0.47778,-5.746572 0.47852,-6.129382 24.71587,-9.893862 7.57287,-1.1762 19.65602,-4.945 28.5909,-8.91766 9.04657,-4.02233 24.85928,-9.03131 33.05297,-10.47017 12.12647,-2.12949 41.46439,-3.85701 54.44703,-3.20604 23.24939,1.16575 39.9211,5.65572 62.06945,16.71634 14.96341,7.47255 20.00172,9.21795 33.23799,11.51448 21.92446,3.80396 47.69256,10.572889 47.69256,12.52819 0,1.110539 -0.0968,1.101731 -7,-0.636663 z m -106.5,-7.488036 c -6.05,-0.386313 -13.475,-0.829293 -16.5,-0.9844 -3.025,-0.155108 3.43147,-0.631329 14.34771,-1.058269 10.91625,-0.426942 20.10552,-1.034062 20.42061,-1.349152 1.12728,-1.12727 -4.30385,-5.70332 -10.2331,-8.62199 -6.67302,-3.28479 -31.63044,-9.93429 -37.37642,-9.95833 -2.01234,-0.008 -4.32119,-0.43422 -5.13077,-0.94621 -2.8453,-1.79939 1.3652,-2.17488 12.06983,-1.07638 20.64101,2.11817 34.00528,7.17931 43.91382,16.63045 3.29357,3.14154 5.98832,6.318391 5.98832,7.05967 0,1.494574 -7.55376,1.578245 -27.5,0.304611 z m -70.5,-1.998166 c -14.44679,-0.873775 -15.06997,-0.975485 -12,-1.958665 1.375,-0.44035 9.3625,-0.8455 17.75,-0.90032 l 15.25,-0.0997 0.001,-8.25 10e-4,-8.25 -13.75142,0.23029 c -10.28933,0.17232 -13.12133,-0.0319 -11.25058,-0.81116 3.20604,-1.33558 20.18187,-3.90555 25.84865,-3.91323 l 4.34865,-0.006 -0.71733,11.75 c -0.39453,6.4625 -0.91548,12.0875 -1.15766,12.5 -0.48801,0.831289 -7.06531,0.752505 -24.32231,-0.291235 z m -40.26224,-0.650345 c -2.67362,-0.69742 -1.01903,-2.30832 2.37092,-2.30832 3.71809,0 8.49805,-2.39665 9.86168,-4.94461 1.44902,-2.70752 1.3604,-2.87739 -1.72036,-3.29795 -2.53151,-0.34559 -2.31301,-0.58423 2.75,-3.00364 6.39398,-3.05543 11,-4.34743 11,-3.08553 0,0.4868 -2.92612,4.58559 -6.50249,9.10841 l -6.50249,8.22332 -4.74751,-0.116 c -2.61113,-0.0638 -5.54052,-0.32286 -6.50975,-0.57568 z"
 />
</svg>
